<?xml version="1.0" encoding="utf-8"?>
<!-- Generator: Adobe Illustrator 19.0.1, SVG Export Plug-In . SVG Version: 6.00 Build 0)  -->
<svg version="1.1" id="Слой_1" xmlns="http://www.w3.org/2000/svg" xmlns:xlink="http://www.w3.org/1999/xlink" x="0px" y="0px"
	 viewBox="-487 736 24 30" style="enable-background:new -487 736 24 30;" xml:space="preserve">
<g>
	<g>
		<path d="M-480,742.5c-0.1,0-0.1,0-0.2,0c-0.8-0.3-3.3-1.1-4.6-0.5c-0.2,0.1-0.4,0-0.6-0.1c-0.1-0.2-0.2-0.4,0-0.6
			c1-1.6,2.3-2.6,3.7-2.9c2.1-0.5,3.9,0.7,4,0.7c0.2,0.2,0.3,0.5,0.1,0.7c-0.2,0.2-0.5,0.3-0.7,0.1c0,0-1.5-1-3.2-0.6
			c-0.8,0.2-1.6,0.7-2.3,1.4c1.8-0.1,3.9,0.8,4,0.8c0.3,0.1,0.4,0.4,0.3,0.7C-479.6,742.4-479.8,742.5-480,742.5z"/>
	</g>
	<g>
		<path d="M-477,760c-0.1,0-0.1,0-0.2,0c-0.2-0.1-0.3-0.3-0.3-0.5c0-1.4,0.4-2.4,0.7-3.1c0.1-0.2,0.2-0.4,0.2-0.6
			c-3.5-1.7-5.9-7.7-5.9-9.3c0-1.7,0.8-4,1.6-4.9c0.2-0.2,0.5-0.2,0.7,0c0.2,0.2,0.2,0.5,0,0.7c-0.7,0.7-1.4,2.7-1.4,4.1
			c0,1.3,2.4,7.2,5.7,8.5c0.2,0.1,0.3,0.3,0.3,0.5c0,0.4-0.2,0.8-0.4,1.2c-0.2,0.4-0.4,1-0.5,1.6c0.6-0.4,1-0.4,1.4-0.4
			c0.3,0,0.4,0,0.6-0.3c0.7-0.7,0.9-1.2,0.9-1.3c0-0.2,0.2-0.3,0.3-0.4c0.2-0.1,0.3,0,0.5,0.1c0.1,0,1.4,1.1,2.9,0
			c0.5-0.4,0.9-0.8,1.2-1.1c0.3-0.3,0.6-0.6,0.9-0.8c-0.4-0.2-0.8-0.3-1.3-0.3c-1.3,0-3.9,0.5-3.9,0.5c-0.2,0-0.4-0.1-0.5-0.2
			c-0.1-0.2-2.4-4.2-1-7.4c0.1-0.3,0.4-0.4,0.7-0.3c0.3,0.1,0.4,0.4,0.3,0.7c-1,2.3,0.3,5.3,0.8,6.2c0.8-0.1,2.7-0.4,3.7-0.4
			c1.2,0,2,0.4,2.7,0.8c0.2,0.1,0.3,0.2,0.5,0.3c0.2,0.1,0.3,0.3,0.3,0.6c-0.1,0.2-0.3,0.4-0.5,0.4c-1-0.1-1.2,0.1-1.9,0.7
			c-0.3,0.3-0.7,0.7-1.3,1.2c-1.4,1.1-2.7,0.8-3.6,0.4c-0.2,0.3-0.4,0.7-0.9,1.1c-0.5,0.5-0.9,0.5-1.3,0.6c-0.4,0-0.8,0.1-1.7,0.9
			C-476.8,759.9-476.9,760-477,760z"/>
	</g>
	<g>
		<path d="M-474,752c-0.2,0-0.3-0.1-0.4-0.2c-1.3-1.7-2.1-2.9-2.1-4.3c0-0.4,0.2-0.7,0.5-0.9c1-0.7,3.3-0.2,4.5,0.2
			c-0.2-1.4-1.1-2.6-2.8-3.9c-0.1-0.1-0.2-0.2-0.2-0.4c0-0.2,0.1-0.3,0.2-0.4c1.4-1,4.2-1.1,4.3-1.1c1.9,0,5.1,2,5.3,2.1
			c0.2,0.1,0.3,0.5,0.2,0.7c-0.1,0.2-0.5,0.3-0.7,0.2c-0.9-0.5-3.4-1.9-4.7-1.9c-0.6,0-2.1,0.2-3.1,0.6c1.8,1.6,2.6,3.1,2.6,4.9
			c0,0.2-0.1,0.3-0.2,0.4c-0.1,0.1-0.3,0.1-0.5,0.1c-1.8-0.6-3.8-0.9-4.3-0.5c0,1.2,0.7,2.2,1.9,3.8c0.2,0.2,0.1,0.5-0.1,0.7
			C-473.8,752-473.9,752-474,752z"/>
	</g>
	<g>
		<path d="M-465.5,745c-0.4,0-0.9-0.2-1.5-0.4c-0.7-0.3-1.7-0.6-2.5-0.6c-1.4,0-2.2,0.4-2.3,0.4c-0.2,0.1-0.5,0-0.7-0.2
			c-0.1-0.2-0.1-0.5,0.2-0.7c0,0,1-0.6,2.7-0.6c1.1,0,2.1,0.4,2.9,0.7c0.4,0.2,0.9,0.3,1.1,0.3c0,0,0.1-0.2,0.1-0.5
			c-0.1-0.6-0.7-1.2-1.7-1.6c-0.2-0.1-0.3-0.3-0.3-0.5c0-2.3-2.7-4.5-5.5-4.5c-2.7,0-4.8,1.2-5.6,2.3c-0.2,0.2-0.5,0.3-0.7,0.1
			c-0.2-0.2-0.3-0.5-0.1-0.7c1-1.3,3.3-2.7,6.4-2.7c2.9,0,6.2,2.2,6.5,5.2c1.7,0.7,2.2,2,2.1,2.8C-464.6,744.6-465,745-465.5,745z"
			/>
	</g>
	<g>
		<circle cx="-472" cy="739.5" r="0.5"/>
	</g>
</g>
</svg>
