<?xml version="1.0" encoding="utf-8"?>
<!-- Generator: Adobe Illustrator 19.0.1, SVG Export Plug-In . SVG Version: 6.00 Build 0)  -->
<svg version="1.1" id="Слой_1" xmlns="http://www.w3.org/2000/svg" xmlns:xlink="http://www.w3.org/1999/xlink" x="0px" y="0px"
	 viewBox="-487 736 24 30" style="enable-background:new -487 736 24 30;" xml:space="preserve">
<g>
	<g>
		<path d="M-480.5,757c-4,0-6.5-6-6.5-8.5c0-2.5,2.8-5.5,10.5-5.5c4,0,4.8-1.1,5.6-2.2c0.6-0.9,1.3-1.8,3.4-1.8
			c0.9,0,1.7,0.3,2.2,0.9c0.9,1,0.8,2.6,0.8,2.7c0,0.3-0.3,0.5-0.5,0.5c-0.3,0-0.5-0.3-0.5-0.5c0,0,0.1-1.2-0.6-1.9
			c-0.3-0.4-0.8-0.5-1.5-0.5c-1.6,0-2,0.6-2.6,1.4c-0.8,1.2-1.9,2.6-6.4,2.6c-6.6,0-9.5,2.3-9.5,4.5c0,2.2,2.4,7.5,5.5,7.5
			c0.4,0,0.7,0,0.8-0.1c-0.2-0.4-1.3-1.3-2.5-2c-0.2-0.1-0.3-0.4-0.2-0.6c0.1-0.2,0.3-0.4,0.5-0.3l3.2,0.4c-0.5-0.4-1.3-0.8-1.8-1.2
			c-1.6-1-3-1.8-3.1-2.7c0-0.2,0-0.6,0.3-0.9c1-1,2.9-0.3,4.8,0.5c1.1,0.4,2.3,0.9,3,0.9c0.3,0,0.5,0.2,0.5,0.5s-0.2,0.5-0.5,0.5
			c-0.9,0-2.1-0.5-3.4-0.9c-1.4-0.6-3.2-1.3-3.8-0.7c0,0.4,1.7,1.4,2.6,2c1.8,1.1,2.9,1.8,3,2.6c0,0.2,0,0.3-0.1,0.4
			c-0.1,0.1-0.3,0.2-0.4,0.2l-2.5-0.3c0.8,0.7,1.5,1.4,1.3,2C-479,757-480.1,757-480.5,757z"/>
	</g>
	<g>
		<path d="M-475.5,754.5c-0.3,0-0.6-0.1-0.8-0.4c-0.2-0.3-0.3-0.8-0.3-1.1h-0.4c-0.2,0-0.3-0.1-0.4-0.2c-0.1-0.1-0.1-0.3-0.1-0.4
			c0-0.1,0.4-1.2,1.2-1.8c0.6-0.4,2.3-2.5,2.3-3.1c0-0.3,0.2-0.5,0.5-0.5s0.5,0.2,0.5,0.5c0,1.2-2.1,3.5-2.7,3.9
			c-0.2,0.1-0.4,0.4-0.5,0.6h0.2c0.2,0,0.3,0.1,0.4,0.2c0.1,0.1,0.1,0.3,0.1,0.4c-0.1,0.4-0.1,0.8,0,0.9c0.6,0,1.9-0.5,2.6-2.2
			c0.7-1.8,2-4,2-4.1c0.1-0.2,0.4-0.3,0.7-0.2c0.2,0.1,0.3,0.4,0.2,0.7c0,0-1.3,2.2-2,3.9C-472.8,753.6-474.3,754.5-475.5,754.5z"/>
	</g>
	<g>
		<path d="M-472,751c-0.3,0-0.5-0.2-0.5-0.5s0.2-0.5,0.5-0.5c1.1,0,6-3.2,6-4.5c0-0.3,0.2-0.5,0.5-0.5s0.5,0.2,0.5,0.5
			C-465,747.5-470.6,751-472,751z"/>
	</g>
	<g>
		<path d="M-465.7,746c-0.6,0-1-0.1-1.3-0.4c-0.4-0.3-0.5-0.9-0.5-1.6c0-0.7,0.3-2,2.5-2c0.8,0,1.3,0.2,1.7,0.5
			c0.4,0.4,0.4,0.9,0.3,1.3c0,0.1,0,0.1,0,0.2c0,0.9-1.1,1.9-2.5,2C-465.5,746-465.6,746-465.7,746z M-465,743c-1.5,0-1.5,0.7-1.5,1
			c0,0.4,0.1,0.7,0.2,0.8c0.1,0.1,0.4,0.2,0.8,0.2c0.9,0,1.5-0.7,1.5-1c0-0.1,0-0.2,0-0.3c0-0.3,0-0.4-0.1-0.5
			C-464.1,743.1-464.3,743-465,743z"/>
	</g>
	<g>
		<circle cx="-467.5" cy="741.5" r="0.5"/>
	</g>
	<g>
		<path d="M-469.5,754c-0.1,0-0.2,0-0.3-0.1c-0.1-0.1-0.2-0.3-0.1-0.5c0.2-0.6,0.3-1.3,0.1-1.5c-0.6-0.6-0.6-1.7-0.6-1.9
			c0-0.3,0.2-0.5,0.5-0.5h0c0.3,0,0.5,0.2,0.5,0.5c0,0.2,0.1,0.9,0.4,1.1c0.4,0.4,0.4,0.9,0.4,1.5c0.9-0.5,1.8-1.1,1.8-1.6
			c0-1.1-0.9-2.2-0.9-2.2c-0.2-0.2-0.1-0.5,0.1-0.7c0.2-0.2,0.5-0.2,0.7,0.1c0,0.1,1.1,1.3,1.1,2.8c0,1.6-2.8,2.7-3.3,3
			C-469.4,754-469.4,754-469.5,754z"/>
	</g>
</g>
</svg>
